…
Para fazer isso com a regressão não linear criada anteriormente,
primeiro precisamos dividir a base em réplicas aleatórias com reposição.
Para isso, podemos utilizar o comando *bootstraps()*:

``` r
set.seed(27)

boots <- bootstraps(mtcars, times = 2000, apparent = TRUE)
boots
```

    ## # Bootstrap sampling with apparent sample 
    ## # A tibble: 2,001 × 2
    ##    splits          id           
    ##    <list>          <chr>        
    ##  1 <split [32/13]> Bootstrap0001
    ##  2 <split [32/10]> Bootstrap0002
    ##  3 <split [32/13]> Bootstrap0003
    ##  4 <split [32/11]> Bootstrap0004
    ##  5 <split [32/9]>  Bootstrap0005
    ##  6 <split [32/10]> Bootstrap0006
    ##  7 <split [32/11]> Bootstrap0007
    ##  8 <split [32/13]> Bootstrap0008
    ##  9 <split [32/11]> Bootstrap0009
    ## 10 <split [32/11]> Bootstrap0010
    ## # ℹ 1,991 more rows
…
boots_com_modelo <- boots |> 
  mutate(
    modelo = map(splits, reg_nls_para_bootstrap),
    tidied = map(modelo, tidy)
  )

boot_resultados <- boots_com_modelo |> 
  unnest(tidied)

boot_resultados
```

    ## # A tibble: 4,002 × 8
    ##    splits          id         modelo term  estimate std.error statistic  p.value
    ##    <list>          <chr>      <list> <chr>    <dbl>     <dbl>     <dbl>    <dbl>
    ##  1 <split [32/13]> Bootstrap… <nls>  k        42.1       4.05     10.4  1.91e-11
    ##  2 <split [32/13]> Bootstrap… <nls>  b         5.39      1.43      3.78 6.93e- 4
    ##  3 <split [32/10]> Bootstrap… <nls>  k        49.9       5.66      8.82 7.82e-10
    ##  4 <split [32/10]> Bootstrap… <nls>  b         3.73      1.92      1.94 6.13e- 2
    ##  5 <split [32/13]> Bootstrap… <nls>  k        37.8       2.68     14.1  9.01e-15
    ##  6 <split [32/13]> Bootstrap… <nls>  b         6.73      1.17      5.75 2.78e- 6
    ##  7 <split [32/11]> Bootstrap… <nls>  k        45.6       4.45     10.2  2.70e-11
    ##  8 <split [32/11]> Bootstrap… <nls>  b         4.75      1.62      2.93 6.38e- 3
    ##  9 <split [32/9]>  Bootstrap… <nls>  k        43.6       4.63      9.41 1.85e-10
    ## 10 <split [32/9]>  Bootstrap… <nls>  b         5.89      1.68      3.51 1.44e- 3
    ## # ℹ 3,992 more rows
…
``` r
boot_augmented <- boots_com_modelo |> 
  sample_n(200) |> 
  mutate(
    augmented = map(modelo, augment)
  ) |> 
  unnest(augmented)
boot_augmented
```

    ## # A tibble: 6,400 × 8
    ##    splits          id            modelo tidied     mpg    wt .fitted .resid
    ##    <list>          <chr>         <list> <list>   <dbl> <dbl>   <dbl>  <dbl>
    ##  1 <split [32/11]> Bootstrap1644 <nls>  <tibble>  16.4  4.07    15.6  0.829
    ##  2 <split [32/11]> Bootstrap1644 <nls>  <tibble>  19.7  2.77    21.9 -2.21 
    ##  3 <split [32/11]> Bootstrap1644 <nls>  <tibble>  19.2  3.84    16.4  2.84 
    ##  4 <split [32/11]> Bootstrap1644 <nls>  <tibble>  21.4  2.78    21.8 -0.437
    ##  5 <split [32/11]> Bootstrap1644 <nls>  <tibble>  26    2.14    27.8 -1.75 
    ##  6 <split [32/11]> Bootstrap1644 <nls>  <tibble>  33.9  1.84    32.0  1.88 
    ##  7 <split [32/11]> Bootstrap1644 <nls>  <tibble>  32.4  2.2     27.0  5.35 
    ##  8 <split [32/11]> Bootstrap1644 <nls>  <tibble>  30.4  1.62    36.1 -5.70 
    ##  9 <split [32/11]> Bootstrap1644 <nls>  <tibble>  21.5  2.46    24.4 -2.86 
    ## 10 <split [32/11]> Bootstrap1644 <nls>  <tibble>  26    2.14    27.8 -1.75 
    ## # ℹ 6,390 more rows
…
boot_spline <- boots |> 
  sample_n(200) |> 
  mutate(
    spline = map(splits, ajuste_spline),
    aug_spline = map(spline, augment)
  )

splines_aug <- 
  boot_spline |> 
  unnest(aug_spline)

splines_aug
```

    ## # A tibble: 6,400 × 8
    ##    splits          id            spline         x     y     w .fitted  .resid
    ##    <list>          <chr>         <list>     <dbl> <dbl> <dbl>   <dbl>   <dbl>
    ##  1 <split [32/10]> Bootstrap0208 <smth.spl>  3.17  15.8     1    18.0 -2.22  
    ##  2 <split [32/10]> Bootstrap0208 <smth.spl>  3.15  22.8     1    18.1  4.67  
    ##  3 <split [32/10]> Bootstrap0208 <smth.spl>  3.22  21.4     1    17.8  3.63  
    ##  4 <split [32/10]> Bootstrap0208 <smth.spl>  5.34  14.7     1    13.9  0.799 
    ##  5 <split [32/10]> Bootstrap0208 <smth.spl>  3.17  15.8     1    18.0 -2.22  
    ##  6 <split [32/10]> Bootstrap0208 <smth.spl>  3.57  14.3     1    16.0 -1.69  
    ##  7 <split [32/10]> Bootstrap0208 <smth.spl>  3.78  15.2     1    15.2  0.0335
    ##  8 <split [32/10]> Bootstrap0208 <smth.spl>  1.84  33.9     1    30.0  3.93  
    ##  9 <split [32/10]> Bootstrap0208 <smth.spl>  3.57  15       1    16.0 -0.986 
    ## 10 <split [32/10]> Bootstrap0208 <smth.spl>  2.62  21       1    21.9 -0.862 
    ## # ℹ 6,390 more rows
…
