…
    ## # A tibble: 2 × 12
    ##   r.squared adj.r.squared sigma statistic  p.value    df    logLik   AIC   BIC
    ##       <dbl>         <dbl> <dbl>     <dbl>    <dbl> <dbl>     <dbl> <dbl> <dbl>
    ## 1     0.833         0.778 0.291     15.0  0.000759     3  -0.00580  10.0  12.8
    ## 2     0.625         0.550 0.522      8.32 0.00170      3 -12.4      34.7  39.4
    ## # ℹ 3 more variables: deviance <dbl>, df.residual <int>, nobs <int>

``` r
regs_organizadas |> 
  select(augmented) |> 
  unnest(augmented)
```

    ## # A tibble: 32 × 10
    ##       wt   mpg  qsec  gear .fitted  .resid  .hat .sigma  .cooksd .std.resid
    ##    <dbl> <dbl> <dbl> <dbl>   <dbl>   <dbl> <dbl>  <dbl>    <dbl>      <dbl>
    ##  1  2.62  21    16.5     4    2.73 -0.107  0.517  0.304 0.0744      -0.527 
    ##  2  2.88  21    17.0     4    2.75  0.126  0.273  0.304 0.0243       0.509 
    ##  3  2.32  22.8  18.6     4    2.63 -0.310  0.312  0.279 0.188       -1.29  
    ##  4  2.2   32.4  19.5     4    1.70  0.505  0.223  0.233 0.278        1.97  
    ##  5  1.62  30.4  18.5     4    1.86 -0.244  0.269  0.292 0.0889      -0.982 
    ##  6  1.84  33.9  19.9     4    1.56  0.274  0.286  0.286 0.125        1.12  
    ##  7  1.94  27.3  18.9     4    2.19 -0.253  0.151  0.293 0.0394      -0.942 
    ##  8  2.14  26    16.7     5    2.21 -0.0683 0.277  0.307 0.00732     -0.276 
    ##  9  1.51  30.4  16.9     5    1.77 -0.259  0.430  0.284 0.263       -1.18  
    ## 10  3.17  15.8  14.5     5    3.15  0.0193 0.292  0.308 0.000644     0.0789
    ## # ℹ 22 more rows
